{
    "status": "ok",
    "total_hits": 10000,
    "page": 1,
    "total_pages": 1000,
    "page_size": 10,
    "articles": [
      {
        "title": "Players should have been convinced to look at bigger picture: Sunil Gavaskar on Asia Cup venue fiasco",
        "author": "PTI",
        "published_date": "2023-09-08 11:04:25",
        "published_date_precision": "full",
        "link": "https://indianexpress.com/article/sports/cricket/players-should-have-been-convinced-to-look-at-bigger-picture-sunil-gavaskar-on-asia-cup-venue-fiasco-8930644",
        "clean_url": "indianexpress.com",
        "excerpt": "The Asia Cup, which is being hosted by PCB, is being held in a 'Hybrid Model' with India playing all their matches in Sri Lanka after refusing to travel to Pakistan",
        "summary": "With heavy rains predicted in Colombo through the week, there were talks of shifting matches to Hambantota but Asian Cricket Council has stuck to its original itinerary. (FILE)\n\nPlayers should have been convinced to look at bigger picture: Sunil Gavaskar on Asia Cup venue fiasco\n\nPlayers should have been convinced to look at bigger picture: Sunil Gavaskar on Asia Cup venue fiasco\n\nIndian legend Sunil Gavaskar wants someone to find the 'real story' behind Asia Cup ‘Super Four' matches not being shifted out of Colombo to a much drier Hambantota and feels at times, even players need to look at the 'bigger picture'.",
        "rights": "indianexpress.com",
        "rank": 976,
        "topic": "news",
        "country": "IN",
        "language": "en",
        "authors": "PTI",
        "media": "https://images.indianexpress.com/2023/09/sunil-gavasnakr.jpg",
        "is_opinion": false,
        "twitter_account": "The Indian Express",
        "_score": null,
        "_id": "735140661a0e6889bfdea50d5d613f31"
      },
      {
        "title": "‘China a multilateral player': G20 Sherpa on Xi Jinping not attending Summit",
        "author": "HT News Desk",
        "published_date": "2023-09-08 11:04:21",
        "published_date_precision": "full",
        "link": "https://www.hindustantimes.com/india-news/china-a-multilateral-player-g20-sherpa-on-xi-jinping-not-attending-summit-101694168377037.html",
        "clean_url": "hindustantimes.com",
        "excerpt": "With Xi Jinping skipping the global meet, Chinese premier Li Qiang will be attending the G20 Summit in the national capital.",
        "summary": "China is a multilateral player and multilateral issues are very different from bilateral ones, G20 Sherpa Amitabh Kant said on Friday.\n \n \n \n \n \n \n \n \nIndia's G20 Sherpa Amitabh Kant during the G20 curtain raiser press conference, in New Delhi, Friday.(PTI)\n \n \n \n'China is a multilateral player. In multilateral discussions, the issues are very different from bilateral issues and the Chinese discuss issues of growth, and development from their perspective\", Kant said when asked about \nChinese president Xi Jinping\n not attending the G20 Summit in New Delhi.",
        "rights": "hindustantimes.com",
        "rank": 980,
        "topic": "news",
        "country": "IN",
        "language": "en",
        "authors": "HT News Desk",
        "media": "https://www.hindustantimes.com/ht-img/img/2023/09/08/1600x900/amitabh_kant_1694170387595_1694170387857.jpg",
        "is_opinion": false,
        "twitter_account": "@httweets",
        "_score": null,
        "_id": "f932de428d5cb57a6013845665d27353"
      },
      {
        "title": "India's javelin thrower Annu Rani to compete in Brussels Diamond League",
        "author": "Naveen",
        "published_date": "2023-09-08 11:03:00",
        "published_date_precision": "timezone unknown",
        "link": "https://www.newkerala.com/news/2023/102133.htm",
        "clean_url": "newkerala.com",
        "excerpt": "Brussels, September 8: India's javelin thrower Annu Rani will compete in the Brussels Diamond League 2023 athletics meet at the King Baudouin Stadium in Belgium on Friday.According to Olympics.com,…",
        "summary": "Brussels, September 8: India's javelin thrower Annu Rani will compete in the Brussels Diamond League 2023 athletics meet at the King Baudouin Stadium in Belgium on Friday.\nAccording to Olympics.com, the Brussels Diamond League 2023, popularly known as Memorial Van Damme, will be Annu Rani's first Diamond League competition of this season. The 31-year-old Indian javelin thrower has competed in just one Diamond League meet before - the Lausanne leg in 2019. She finished an underwhelming seventh there.",
        "rights": "newkerala.com",
        "rank": 13984,
        "topic": "news",
        "country": "IN",
        "language": "en",
        "authors": "Naveen",
        "media": "https://www.newkerala.com/news/pics/r/annu-rani--javelin--iansf-105754.jpg",
        "is_opinion": false,
        "twitter_account": null,
        "_score": null,
        "_id": "7b0709a9635f69ffa669d30655d01029"
      },
      {
        "title": "G20: India to use innovative tech-based exhibition to project itself as ‘liberal democracy' to world leaders",
        "author": "Divya A",
        "published_date": "2023-09-08 11:02:48",
        "published_date_precision": "full",
        "link": "https://indianexpress.com/article/india/g20-india-innovative-tech-exhibition-8930646/",
        "clean_url": "indianexpress.com",
        "excerpt": "The government is hosting a special exhibition highlighting India's democratic traditions titled ‘Bharat: Mother of Democracy' that will greet the heads of the state and other invitees who will be in…",
        "summary": "From Rig Veda, to Ram Rajya, to the present time where the Election Commission conducts free and fair elections to ensure a smooth transfer of power in the country — India is going to showcase it all to the 40 world leaders coming together for the \nG20 Summit,\n with an aim to cement its position as the mother of democracy in the whole world.\nThe government is hosting a special exhibition highlighting India's democratic traditions titled ‘Bharat: Mother of Democracy' that will greet the heads of the state and other invitees who will be in attendance for the G20 summit, officials said, adding that the exhibition has been organised by the Ministry of Culture in the foyer area of Hall 14, which any dignitary entering the summit venue has to pass through.",
        "rights": "indianexpress.com",
        "rank": 976,
        "topic": "news",
        "country": "IN",
        "language": "en",
        "authors": "Divya A",
        "media": "https://images.indianexpress.com/2023/09/G20-Interactive-Feat.jpg",
        "is_opinion": false,
        "twitter_account": "@indianexpress",
        "_score": null,
        "_id": "2bfa4912f5ccb3cfefb66090e3c8f8af"
      },
      {
        "title": "Fashion trends you need to know about in 2023",
        "author": "",
        "published_date": "2023-09-08 11:02:10",
        "published_date_precision": "full",
        "link": "https://www.hindustantimes.com/photos/lifestyle/fashion-trends-you-need-to-know-about-in-2023-101694170167059.html",
        "clean_url": "hindustantimes.com",
        "excerpt": "Here are some 2023 fashion trends to consider adding to your shopping list from now until the end of the year:",
        "summary": "",
        "rights": "hindustantimes.com",
        "rank": 980,
        "topic": "news",
        "country": "IN",
        "language": "en",
        "authors": "",
        "media": "https://www.hindustantimes.com/ht-img/img/2023/09/08/1600x900/Collage_Maker-08-Sep-2023-04-29-PM-1829_1694170767083_1694170824484.jpg",
        "is_opinion": false,
        "twitter_account": "@httweets",
        "_score": null,
        "_id": "c31158448c16a300a165368d400e2213"
      },
      {
        "title": "Sweltering conditions force US Open to amend its roof policy",
        "author": "ts Desk",
        "published_date": "2023-09-08 11:01:19",
        "published_date_precision": "full",
        "link": "https://www.hindustantimes.com/sports/tennis/sweltering-conditions-force-us-open-to-amend-its-roof-policy-101694170563731.html",
        "clean_url": "hindustantimes.com",
        "excerpt": "The change to the roof policy was reportedly made during a quarter-final match between Coco Gauff and Jelena Ostapenko.",
        "summary": "This year's US Open has proved to be a gruelling outing for players because of extreme heat and a rise in temperature. The conditions have been so unbearable that 2021 US Open winner Daniil Medvedev even had to warn that 'one player is going to die' due to the hot and humid weather at Flushing Meadows. With temperatures reaching as high as 95-degree Fahrenheit (35 Celsius), Wednesday reportedly turned out to be the hottest day at US Open 2023. Following innumerable complaints, the US Open recently decided to make a change in its policy regarding the roofed stadiums.",
        "rights": "hindustantimes.com",
        "rank": 980,
        "topic": "sport",
        "country": "IN",
        "language": "en",
        "authors": "ts Desk",
        "media": "https://www.hindustantimes.com/ht-img/img/2023/09/08/1600x900/GSE-MTS-SPO-TEN-WTA-2023-US-OPEN-DAY-9-74_1694170676833_1694170719904.jpg",
        "is_opinion": false,
        "twitter_account": "@httweets",
        "_score": null,
        "_id": "95db6ecb85e5c890c8c05162bb3ff15c"
      },
      {
        "title": "Optimism's range extends — Can late OP sellers exploit it?",
        "author": "BitRss.com",
        "published_date": "2023-09-08 11:01:08",
        "published_date_precision": "timezone unknown",
        "link": "https://bitrss.com/news/326135/optimism-s-range-extends-can-late-op-sellers-exploit-it",
        "clean_url": "bitrss.com",
        "excerpt": "Optimism [OP] could rebound to the range-high if bulls defend the range-low. Sellers could take over again if BTC remains muted.",
        "summary": "Optimism [OP] could rebound to the range-high if bulls defend the range-low. Sellers could take over again if BTC remains muted.",
        "rights": "bitrss.com",
        "rank": 526564,
        "topic": "news",
        "country": "IN",
        "language": "en",
        "authors": "BitRss.com",
        "media": "https://bitrss.com/upload/news/image_1694149705_47482501.png",
        "is_opinion": false,
        "twitter_account": "@RssBit",
        "_score": null,
        "_id": "627737a5936c63182b7c7b7d9ab91c0d"
      },
      {
        "title": "MakerDAO Invests Additional $50M In RWA Assets, Targets $1.28B Investment",
        "author": "BitRss.com",
        "published_date": "2023-09-08 11:01:08",
        "published_date_precision": "timezone unknown",
        "link": "https://bitrss.com/news/326154/makerdao-invests-additional-50m-in-rwa-assets-targets-1-28b-investment",
        "clean_url": "bitrss.com",
        "excerpt": "MakerDAO adds $50M in RWA assets via BlockTower Andromeda, targets $1.28B investment. $100M funding for tokenized T-Bill products recommended.Read more...Coincu News",
        "summary": "MakerDAO adds $50M in RWA assets via BlockTower Andromeda, targets $1.28B investment. $100M funding for tokenized T-Bill products recommended.Read more...Coincu News",
        "rights": "bitrss.com",
        "rank": 526564,
        "topic": "news",
        "country": "IN",
        "language": "en",
        "authors": "BitRss.com",
        "media": "https://bitrss.com/upload/news/image_1694156946_46931638.jpg",
        "is_opinion": false,
        "twitter_account": "@RssBit",
        "_score": null,
        "_id": "d4e989f617a367f1d55de2bf3dae5702"
      },
      {
        "title": "FBI Interviews Winklevoss Twin On DCG's Crypto Fraud Charges",
        "author": "BitRss.com",
        "published_date": "2023-09-08 11:01:08",
        "published_date_precision": "timezone unknown",
        "link": "https://bitrss.com/news/326141/fbi-interviews-winklevoss-twin-on-dcg-s-crypto-fraud-charges",
        "clean_url": "bitrss.com",
        "excerpt": "Cameron Winklevoss, co-founder of the crypto trading platform Gemini Trust Co, has been interviewed by agents from the Federal Bureau of Investigation (FBI), staff from the Securities and Exchange Commission (SEC), and New York City prosecutors in recent",
        "summary": "Cameron Winklevoss, co-founder of the crypto trading platform Gemini Trust Co, has been interviewed by agents from the Federal Bureau of Investigation (FBI), staff from the Securities and Exchange Commission (SEC), and New York City prosecutors in recent",
        "rights": "bitrss.com",
        "rank": 526564,
        "topic": "news",
        "country": "IN",
        "language": "en",
        "authors": "BitRss.com",
        "media": "https://bitrss.com/upload/news/image_1694156884_84662070.jpg",
        "is_opinion": false,
        "twitter_account": "@RssBit",
        "_score": null,
        "_id": "57d4844a72a347eaad25f83df020a239"
      },
      {
        "title": "One Trading Launch Instant Trade",
        "author": "BitRss.com",
        "published_date": "2023-09-08 11:01:08",
        "published_date_precision": "timezone unknown",
        "link": "https://bitrss.com/news/326155/one-trading-launch-instant-trade",
        "clean_url": "bitrss.com",
        "excerpt": "London, United Kingdom, September 8th, 2023, Chainwire\n\nOne Trading, the crypto asset exchange formerly operating under the Bitpanda Pro brand, today announced its new product, Instant Trade.…",
        "summary": "54 minutes ago\n\n\nFlash News\n\n\nThe Bitcoin News\n\n\n 28\n\n\n \nPrint this Page\n\n\n \n\n\n\n\n \n\nLondon, United Kingdom, September 8th, 2023, Chainwire One Trading, the crypto asset exchange formerly operating under the Bitpanda Pro brand, today announced its new product, Instant Trade.   Having recently raised €30M and fully separated from Bitpanda, Instant Trade is another step forward for One Trading as it diversifies its offering and establishes its footprint as a household name providing crypto assets to both retail and institutional investors in Europe.",
        "rights": "bitrss.com",
        "rank": 526564,
        "topic": "news",
        "country": "IN",
        "language": "en",
        "authors": "BitRss.com",
        "media": "https://bitrss.com/upload/news/image_1694160482_27346587.jpg",
        "is_opinion": false,
        "twitter_account": "@RssBit",
        "_score": null,
        "_id": "aaea263eaa818a1c3e1b8a7f22d34454"
      }
    ],
    "user_input": {
      "lang": [
        "en"
      ],
      "not_lang": null,
      "countries": [
        "IN"
      ],
      "not_countries": null,
      "page": 1,
      "size": 10,
      "sources": null,
      "not_sources": [],
      "topic": null,
      "from": "2023-09-07 11:08:26"
    }
  }
